%YAML 1.1
%TAG !u! tag:unity3d.com,2011:
--- !u!114 &11400000
MonoBehaviour:
  m_ObjectHideFlags: 0
  m_CorrespondingSourceObject: {fileID: 0}
  m_PrefabInstance: {fileID: 0}
  m_PrefabAsset: {fileID: 0}
  m_GameObject: {fileID: 0}
  m_Enabled: 1
  m_EditorHideFlags: 0
  m_Script: {fileID: 11500000, guid: de736be41074b044495dc95a113c6cd0, type: 3}
  m_Name: Pickup
  m_EditorClassIdentifier: 
  Clip: {fileID: 8300000, guid: 7c078fba5825f13468340c5c1bee99cf, type: 3}
  PitchLow: 1
  PitchHigh: 1
  Volume: 0.8
