{
    "name": "MainControls",
    "maps": [
        {
            "name": "Player",
            "id": "d01ad261-94c4-45ed-a8f9-f1c81e4e55b1",
            "actions": [
                {
                    "name": "Move",
                    "type": "Value",
                    "id": "44568713-5e31-4f50-8697-c2850dac0983",
                    "expectedControlType": "Vector2",
                    "processors": "",
                    "interactions": "",
                    "initialStateCheck": true
                },
                {
                    "name": "Jump",
                    "type": "Button",
                    "id": "f02b728c-b2c0-4a1f-8046-26d7de2ac439",
                    "expectedControlType": "Button",
                    "processors": "",
                    "interactions": "",
                    "initialStateCheck": false
                },
                {
                    "name": "Drag",
                    "type": "Button",
                    "id": "c1f1f8f5-795c-4563-a6b7-35f6d09d3dd4",
                    "expectedControlType": "Button",
                    "processors": "",
                    "interactions": "",
                    "initialStateCheck": false
                },
                {
                    "name": "Restart",
                    "type": "Button",
                    "id": "9cac668f-765a-49df-acc7-835109c71244",
                    "expectedControlType": "Button",
                    "processors": "",
                    "interactions": "",
                    "initialStateCheck": false
                }
            ],
            "bindings": [
                {
                    "name": "WASD",
                    "id": "46de5221-4bbd-4f45-8296-9976e9648d33",
                    "path": "2DVector",
                    "interactions": "",
                    "processors": "",
                    "groups": "",
                    "action": "Move",
                    "isComposite": true,
                    "isPartOfComposite": false
                },
                {
                    "name": "up",
                    "id": "1e0766a3-0c49-463e-a58b-62673103f446",
                    "path": "<Keyboard>/w",
                    "interactions": "",
                    "processors": "",
                    "groups": "Main",
                    "action": "Move",
                    "isComposite": false,
                    "isPartOfComposite": true
                },
                {
                    "name": "down",
                    "id": "42297455-956b-4de8-a110-2f72810d964e",
                    "path": "<Keyboard>/s",
                    "interactions": "",
                    "processors": "",
                    "groups": "Main",
                    "action": "Move",
                    "isComposite": false,
                    "isPartOfComposite": true
                },
                {
                    "name": "left",
                    "id": "77f103c7-44b9-4ed3-9bd2-43b30c895821",
                    "path": "<Keyboard>/a",
                    "interactions": "",
                    "processors": "",
                    "groups": "Main",
                    "action": "Move",
                    "isComposite": false,
                    "isPartOfComposite": true
                },
                {
                    "name": "right",
                    "id": "c6d4b0ad-00c5-448b-b546-fc69351de87c",
                    "path": "<Keyboard>/d",
                    "interactions": "",
                    "processors": "",
                    "groups": "Main",
                    "action": "Move",
                    "isComposite": false,
                    "isPartOfComposite": true
                },
                {
                    "name": "",
                    "id": "d328354e-5153-49d3-81cd-88a285ca1da2",
                    "path": "<Keyboard>/space",
                    "interactions": "Press",
                    "processors": "",
                    "groups": "Main",
                    "action": "Jump",
                    "isComposite": false,
                    "isPartOfComposite": false
                },
                {
                    "name": "",
                    "id": "3410f451-a531-433e-82ad-10c9b4acb108",
                    "path": "<Mouse>/leftButton",
                    "interactions": "Press(behavior=2)",
                    "processors": "",
                    "groups": "Main",
                    "action": "Drag",
                    "isComposite": false,
                    "isPartOfComposite": false
                },
                {
                    "name": "",
                    "id": "a374fad3-3db5-4525-b96d-5cfe70098f14",
                    "path": "<Keyboard>/r",
                    "interactions": "Press",
                    "processors": "",
                    "groups": "Main",
                    "action": "Restart",
                    "isComposite": false,
                    "isPartOfComposite": false
                }
            ]
        }
    ],
    "controlSchemes": [
        {
            "name": "Main",
            "bindingGroup": "Main",
            "devices": [
                {
                    "devicePath": "<Keyboard>",
                    "isOptional": false,
                    "isOR": false
                },
                {
                    "devicePath": "<Mouse>",
                    "isOptional": false,
                    "isOR": false
                }
            ]
        }
    ]
}